{
    "subject": "5050424c323032333441564e4f524b4e41344b39564948323049465945",
    "alias": "PPBL20234AVNORKNA4K9VIH20IFYE",
    "contactData": {
        "value": [
            "e-mail: gulin.serge@gmail.com",
            "discord: gulin.serge",
            "telegram: gulinserge"
        ]
    },
    "url": {
        "value": [
            "https://www.linkedin.com/in/serge-s-gulin-95178454/"
        ]
    },
    "bio": {
        "value": [
            "Haskell backend developer",
            "PureScript/TypeScript frontend developer"
        ]
    },
    "goals": {
        "value": "Develop and audit smart contracts and dApps"
    }
}